#include "$(ENGLISHDIR)/partners/partners.def"

<partnertable>

# <typeofpartner <partnerofthemonth>>

# <div>
# <partnerlogo "Oregon State University Open Source Lab" osuosl.png "https://osuosl.org/">
# # last update: 2017/06/23 (new logo)
# # partner of the month 20170812 - 
# <partnerdesc>
# <osuosl1>
# <osuosl2>
# </partnerdesc>
# </div>
#
# <hr>
 
 <typeofpartner <alphabeticallist>>

 <div id="oneandone">
 <partnerlogo "1und1" 1und1.png "https://www.1und1.de">
 <partnerdesc>
 <oneandone1>
 <oneandone2>
 </partnerdesc>
 </div>
 
 <hr>
 
<div id="Ampere">
 <partnerlogo "Ampere" ampere.jpg "https://amperecomputing.com">
 <partnerdesc>
 <ampere1>
 <ampere2>
 </partnerdesc>
 </div>
 
 <hr>

 <div id="Bytemark">
 <partnerlogo "Bytemark" bytemark_logo.svg "https://www.bytemark.co.uk">
 # last update: 2020/08/22 (new location)
 <partnerdesc>
 <bytemark1>
 <bytemark2>
 </partnerdesc>
 </div>

 <hr>
 
 <div id="conova">
 <partnerlogo "conova" conova.png "https://www.conova.com">
 # date added: 2017/05/02
 # last update: 2017/05/02
 <partnerdesc>
 <conova1>
 <conova2>
 </partnerdesc>
 </div>

 <hr>

 <div id="credativ">
 <partnerlogo "credativ GmbH" credativ.png "https://www.credativ.de/">
 <partnerdesc>
 <credativ1>
 <credativ2>
 </partnerdesc>
 </div>

 <hr>
 
 <div id="Fastly">
 <partnerlogo "Fastly" fastly.png "https://www.fastly.com">
 # last update: 2017/11/25 (New addition)
 <partnerdesc>
 <fastly1>
 <fastly2>
 </partnerdesc>
 </div>

  <hr>

<div id="Freexian">
 <partnerlogo "Freexian" freexian.svg "https://www.freexian.com">
 # last update: 2024/09/16 (New addition)
 <partnerdesc>
 <freexian1>
 <freexian2>
 </partnerdesc>
 </div>

  <hr>
 
 <div id="Gandi">
 <partnerlogo "Gandi" gandi.svg "https://www.gandi.net">
 # last update: 2023/06/07 (New addition)
 <partnerdesc>
 <gandi1>
 <gandi2>
 </partnerdesc>
 </div>
  
 <hr>
 
 <div id="Google">
 <partnerlogo "Google" google.svg "https://www.google.com/">
 # last update: 2019/03/20 (new addition)
 <partnerdesc>
 <google1>
 <google2>
 </partnerdesc>
 </div>

<hr>

 <div id="hetzner">
 <partnerlogo "Hetzner" hetzner-logo.svg "https://www.hetzner.com">
  # date added: 2020/11/26
 <partnerdesc>
 <hetzner1>
 <hetzner2>
 </partnerdesc>
 </div>

<hr>
   
 <div id="HPE">
 <partnerlogo "HPE" hpe.png "https://developer.hpe.com">
 # last update: 2020/08/22 (URL change)
 <partnerdesc>
 <hpe1>
 <hpe2>
 </partnerdesc>
 </div>

 <hr>
  
 <div id="LeaseWeb">
 <partnerlogo "LeaseWeb" logo_leaseweb.png "https://www.leaseweb.com/">
  # date added: 2017/05/20
  # last update: 2017/05/20
 <partnerdesc>
 <leaseweb1>
 <leaseweb2>
 </partnerdesc>
 </div>

 <hr>

 # <div id="Lenovo">
 # <partnerlogo "Lenovo" lenovo.png "https://www.lenovo.com">
 # <partnerdesc>
 # <lenovo1>
 # <lenovo2>
 # </partnerdesc>
 # </div>

 # <hr>

 <div id="Loongson">
 <partnerlogo "Loongson" loongson.png "https://www.loongson.cn/index.html">
 <partnerdesc>
 <loongson1>
 <loongson2>
 </partnerdesc>
 </div>

 <hr>

 <div id="man-da">
 <partnerlogo "Metropolitan Area Network Darmstadt" manda_logo.png "https://www.man-da.de/">
 <partnerdesc>
 <man-da1>
 <man-da2>
 </partnerdesc>
 </div>

 <hr>
  
 <div id="osuosl">
 <partnerlogo "Oregon State University Open Source Lab" osuosl.png "https://osuosl.org/">
 # last update: 2017/06/23 (new logo)
 # partner of the month 20170812 - November 2017
 <partnerdesc>
 <osuosl1>
 <osuosl2>
 </partnerdesc>
 </div>

 <hr>
 
# <div id="Raptor">
# <partnerlogo "Raptor Computing Systems" raptor.png "https://www.raptorcs.com/">
# # last update: 2023/09/18 (temporary removal due to unresponsiveness)
# <partnerdesc>
# <raptor1>
# <raptor2>
# </partnerdesc>
# </div>

# <hr>
 
 <div id="RcodeZeroDNS">
 <partnerlogo "RcodeZeroDNS" rcodezerodns.png "https://www.rcodezero.at/">
 <partnerdesc>
 <rcodezerodns1>
 <rcodezerodns2>
 </partnerdesc>
 </div>

 <hr>

 <div id="ubc"> 
 <partnerlogo "UBC Advanced Research Computing" ubc.png "https://arc.ubc.ca">
 <partnerdesc>
 <ubc1>
 <ubc2>
 </partnerdesc>
 </div>
 
 <hr>
 
 <div id="wellcome"> 
 <partnerlogo "Wellcome Sanger Institute" wellcome_sanger.png "https://www.sanger.ac.uk/">
 <partnerdesc>
 <wellcome1>
 <wellcome2>
 </partnerdesc>
 </div>

</partnertable>
